weeks/week-03/rtl-dv/fsm_vending_machine/tb_output.vcd
$date
	Fri Mar 13 18:41:26 2026
$end
$version
	Icarus Verilog
$end
$timescale
	1ps
$end
$scope module vending_tb $end
$scope module dut $end
$var wire 1 ! add $end
$var wire 1 " add_mon $end
$var wire 1 # back $end
$var wire 1 $ check_out $end
$var wire 1 % clk $end
$var wire 1 & conf $end
$var wire 10 ' mo_lef [9:0] $end
$var wire 10 ( mon_add [9:0] $end
$var wire 1 ) pay_card $end
$var wire 1 * pro_chose $end
$var wire 5 + pro_detail [4:0] $end
$var wire 1 , rst_n $end
$var wire 1 - tak_bac $end
$var wire 1 . timer $end
$var reg 1 / afford $end
$var reg 10 0 balance [9:0] $end
$var reg 1 1 cart_full $end
$var reg 5 2 displaying [4:0] $end
$var reg 1 3 error $end
$var reg 4 4 i [3:0] $end
$var reg 10 5 mo_left [9:0] $end
$var reg 10 6 mo_out [9:0] $end
$var reg 2 7 next [1:0] $end
$var reg 10 8 payment [9:0] $end
$var reg 5 9 pro_count [4:0] $end
$var reg 10 : shortfall [9:0] $end
$var reg 2 ; state [1:0] $end
$var reg 1 < trans_completed $end
$var reg 1 = trans_done $end
$upscope $end
$upscope $end
$enddefinitions $end
$comment Show the parameter values. $end
$dumpall
$end
#0
$dumpvars
0=
0<
b0 ;
b0 :
b0 9
b0 8
b0 7
b0 6
b0 5
b1011 4
03
b0 2
01
b0 0
1/
0.
0-
0,
b0 +
0*
0)
b0 (
b0 '
0&
0%
0$
0#
0"
0!
$end
#4000
b11 7
b1011 4
1-
#5000
b1011 4
1%
#8000
b1011 4
b0 7
0-
#10000
0%
#15000
b1011 4
1%
#20000
0%
#25000
b1011 4
1%
#30000
0%
#35000
b1011 4
1%
#40000
0%
#45000
b1011 4
1%
#50000
0%
#55000
b1011 4
1%
#60000
0%
#65000
b1011 4
1%
#70000
0%
#75000
b1011 4
1%
#80000
0%
#85000
b1011 4
1%
#90000
0%
#95000
1,
1%
#100000
0%
#105000
1%
#110000
0%
#115000
b11001000 6
b11001000 0
b1 7
b1011 4
1*
b1 +
b11001000 '
1%
#120000
0%
#125000
b1 2
b1011 4
b1 ;
1%
#126000
b1011 4
b1 2
0*
#130000
0%
#135000
1%
#140000
0%
#145000
1%
#147000
1!
#150000
0%
#155000
b1011 4
b1 2
b1 9
b1111101 8
1%
#156000
0!
#160000
0%
#165000
b10 7
b1011 4
b1 2
1$
1%
#170000
0%
#175000
b1011 4
b0 2
b10 ;
1%
#176000
b1011 4
0$
#180000
0%
#185000
b1001011 5
1<
1=
b0 9
b0 8
b1001011 0
b0 7
b0 4
1&
1%
#190000
0%
#195000
b0 ;
b1011 4
1%
#198000
b1011 4
0&
#200000
0%
#205000
1%
#210000
0%
#215000
1%
#217000
0<
b0 5
0=
b0 6
b0 0
b1011 4
0,
#220000
0%
#225000
b1011 4
1%
#230000
0%
#235000
b1011 4
1%
#240000
0%
#245000
b1011 4
1%
#250000
0%
#255000
b1011 4
1%
#260000
0%
#265000
b1011 4
1%
#270000
0%
#275000
b1011 4
1%
#280000
0%
#285000
b1011 4
1%
#290000
0%
#295000
1,
1%
#300000
0%
#305000
1%
#310000
0%
#315000
b1100100 6
b1100100 0
b1 7
b1011 4
1*
b10101 +
b1100100 '
1%
#320000
0%
#325000
b10101 2
b1011 4
b1 ;
1%
#326000
b1011 4
b10101 2
0*
#330000
0%
#335000
1%
#340000
0%
#345000
1%
#347000
1!
#350000
0%
#355000
b1011 4
0/
b10101 2
b1 9
b11111010 8
1%
#356000
0!
#360000
0%
#365000
b10 7
b1011 4
b10101 2
1$
1%
#370000
0%
#375000
b1011 4
b0 2
b10 ;
1%
#376000
b1011 4
0$
#380000
0%
#385000
b10010110 :
13
b1011 4
1&
1%
#390000
0%
#395000
1%
#398000
b1011 4
0&
#400000
0%
#405000
1%
#410000
0%
#415000
1%
#417000
1/
b0 7
b0 :
03
b0 6
b0 9
b0 8
b0 0
b0 ;
b1011 4
0,
#420000
0%
#425000
b1011 4
1%
#430000
0%
#435000
b1011 4
1%
#440000
0%
#445000
b1011 4
1%
#450000
0%
#455000
b1011 4
1%
#460000
0%
#465000
b1011 4
1%
#470000
0%
#475000
b1011 4
1%
#480000
0%
#485000
b1011 4
1%
#490000
0%
#495000
1,
1%
#500000
0%
#505000
1%
#510000
0%
#515000
b111100 6
b111100 0
b1 7
b1011 4
1*
b10001 +
b111100 '
1%
#520000
0%
#525000
b10001 2
b1011 4
b1 ;
1%
#526000
b1011 4
b10001 2
0*
#530000
0%
#535000
1%
#540000
0%
#545000
1%
#547000
1!
#550000
0%
#555000
b1011 4
b10001 2
b1 9
b111100 8
1%
#556000
0!
#560000
0%
#565000
b10 7
b1011 4
b10001 2
1$
1%
#570000
0%
#575000
b1011 4
b0 2
b10 ;
1%
#576000
b1011 4
0$
#580000
0%
#585000
1<
1=
b0 9
b0 8
b0 0
b0 7
b0 4
1&
1%
#590000
0%
#595000
b0 ;
b1011 4
1%
#598000
b1011 4
0&
#600000
0%
#605000
1%
#610000
0%
#615000
1%
#617000
0<
0=
b0 6
b1011 4
0,
#620000
0%
#625000
b1011 4
1%
#630000
0%
#635000
b1011 4
1%
#640000
0%
#645000
b1011 4
1%
#650000
0%
#655000
b1011 4
1%
#660000
0%
#665000
b1011 4
1%
#670000
0%
#675000
b1011 4
1%
#680000
0%
#685000
b1011 4
1%
#690000
0%
#695000
1,
1%
#700000
0%
#705000
1%
#710000
0%
#715000
b11001000 6
b11001000 0
b1 7
b1011 4
1*
b1 +
b11001000 '
1%
#720000
0%
#725000
b1 2
b1011 4
b1 ;
1%
#726000
b1011 4
b1 2
0*
#730000
0%
#735000
1%
#740000
0%
#745000
1%
#747000
1!
#750000
0%
#755000
b1011 4
b1 2
b1 9
b1111101 8
1%
#756000
0!
#760000
0%
#765000
b10 7
b1011 4
b1 2
1$
1%
#770000
0%
#775000
b1011 4
b0 2
b10 ;
1%
#776000
b1011 4
0$
#780000
0%
#785000
b1001011 5
1<
1=
b0 9
b0 8
b1001011 0
b0 7
b0 4
1&
1%
#790000
0%
#795000
b0 ;
b1011 4
1%
#798000
b1011 4
0&
#800000
0%
#805000
1%
#810000
0%
#815000
1%
#817000
b11 7
b1011 4
1-
#820000
0%
#825000
b0 7
b1011 4
0=
b1001011 6
b11001000 0
b11 ;
1%
#828000
b1011 4
b0 7
0-
#830000
0%
#835000
b1011 4
b0 0
b0 ;
1%
#837000
0<
b0 5
b0 6
b1011 4
0,
#840000
0%
#845000
b1011 4
1%
#850000
0%
#855000
b1011 4
1%
#860000
0%
#865000
b1011 4
1%
#870000
0%
#875000
b1011 4
1%
#880000
0%
#885000
b1011 4
1%
#890000
0%
#895000
b1011 4
1%
#900000
0%
#905000
b1011 4
1%
#910000
0%
#915000
1,
1%
#920000
0%
#925000
1%
#930000
0%
#935000
b1111101 6
b1111101 0
b1 7
b1011 4
1*
b1 +
b1111101 '
1%
#940000
0%
#945000
b1 2
b1011 4
b1 ;
1%
#946000
b1011 4
b1 2
0*
#950000
0%
#955000
1%
#960000
0%
#965000
1%
#967000
1!
#970000
0%
#975000
b1011 4
b1 2
b1 9
b1111101 8
1%
#976000
0!
#980000
0%
#985000
b10 7
b1011 4
b1 2
1$
1%
#990000
0%
#995000
b1011 4
b0 2
b10 ;
1%
#996000
b1011 4
0$
#1000000
0%
#1005000
1<
1=
b0 9
b0 8
b0 0
b0 7
b0 4
1&
1%
#1010000
0%
#1015000
b0 ;
b1011 4
1%
#1018000
b1011 4
0&
#1020000
0%
#1025000
1%
#1030000
0%
#1035000
1%
#1037000
b11 7
b1011 4
1-
#1040000
0%
#1045000
b0 7
b1011 4
0=
b0 6
b1111101 0
b11 ;
1%
#1048000
b1011 4
b0 7
0-
#1050000
0%
#1055000
b1011 4
b0 0
b0 ;
1%
#1057000
0<
b1011 4
0,
#1060000
0%
#1065000
b1011 4
1%
#1070000
0%
#1075000
b1011 4
1%
#1080000
0%
#1085000
b1011 4
1%
#1090000
0%
#1095000
b1011 4
1%
#1100000
0%
#1105000
b1011 4
1%
#1110000
0%
#1115000
b1011 4
1%
#1120000
0%
#1125000
b1011 4
1%
#1130000
0%
#1135000
1,
1%
#1140000
0%
#1145000
1%
#1150000
0%
#1155000
b111110100 6
b111110100 0
b1 7
b1011 4
1*
b1 +
b111110100 '
1%
#1160000
0%
#1165000
b1 2
b1011 4
b1 ;
1%
#1166000
b1011 4
b1 2
0*
#1170000
0%
#1175000
1%
#1180000
0%
#1185000
1%
#1187000
1!
#1190000
0%
#1195000
b1011 4
b1 2
b1 9
b1111101 8
1%
#1196000
0!
#1200000
0%
#1205000
b10 7
b1011 4
b1 2
1$
1%
#1210000
0%
#1215000
b1011 4
b0 2
b10 ;
1%
#1216000
b1011 4
0$
#1220000
0%
#1225000
b101110111 5
1<
1=
b0 9
b0 8
b101110111 0
b0 7
b0 4
1&
1%
#1230000
0%
#1235000
b0 ;
b1011 4
1%
#1238000
b1011 4
0&
#1240000
0%
#1245000
1%
#1250000
0%
#1255000
1%
#1257000
b11 7
b1011 4
1-
#1260000
0%
#1265000
b0 7
b1011 4
0=
b101110111 6
b111110100 0
b11 ;
1%
#1268000
b1011 4
b0 7
0-
#1270000
0%
#1275000
b1011 4
b0 0
b0 ;
1%
#1277000
0<
b0 5
b0 6
b1011 4
0,
#1280000
0%
#1285000
b1011 4
1%
#1290000
0%
#1295000
b1011 4
1%
#1300000
0%
#1305000
b1011 4
1%
#1310000
0%
#1315000
b1011 4
1%
#1320000
0%
#1325000
b1011 4
1%
#1330000
0%
#1335000
b1011 4
1%
#1340000
0%
#1345000
b1011 4
1%
#1350000
0%
#1355000
1,
1%
#1360000
0%
#1365000
1%
#1370000
0%
#1375000
b1011 4
b0 +
b11001000 '
1%
#1377000
b11 7
b1011 4
1-
#1380000
0%
#1385000
b0 7
b1011 4
b11001000 6
b11001000 0
b11 ;
1%
#1388000
b1011 4
b0 7
0-
#1390000
0%
#1395000
b1011 4
1<
b0 0
b0 ;
1%
#1397000
0<
b0 6
b1011 4
0,
#1400000
0%
#1405000
b1011 4
1%
#1410000
0%
#1415000
b1011 4
1%
#1420000
0%
#1425000
b1011 4
1%
#1430000
0%
#1435000
b1011 4
1%
#1440000
0%
#1445000
b1011 4
1%
#1450000
0%
#1455000
b1011 4
1%
#1460000
0%
#1465000
b1011 4
1%
#1470000
0%
#1475000
1,
1%
#1480000
0%
#1485000
1%
#1490000
0%
#1495000
b110010000 6
b110010000 0
b1 7
b1011 4
1*
b1 +
b110010000 '
1%
#1500000
0%
#1505000
b1 2
b1011 4
b1 ;
1%
#1506000
b1011 4
b1 2
0*
#1510000
0%
#1515000
1%
#1520000
0%
#1525000
1%
#1527000
1!
#1530000
0%
#1535000
b1011 4
b1 2
b1 9
b1111101 8
1%
#1536000
0!
#1540000
0%
#1545000
b1011 4
b1 2
1*
1%
#1550000
0%
#1555000
1%
#1556000
b1011 4
b1 2
0*
#1560000
0%
#1565000
1%
#1570000
0%
#1575000
1%
#1577000
1!
#1580000
0%
#1585000
b1011 4
b1 2
b10 9
b11111010 8
1%
#1586000
0!
#1590000
0%
#1595000
b10 7
b1011 4
b1 2
1$
1%
#1600000
0%
#1605000
b1011 4
b0 2
b10 ;
1%
#1606000
b1011 4
0$
#1610000
0%
#1615000
b10010110 5
1<
1=
b0 9
b0 8
b10010110 0
b0 7
b0 4
1&
1%
#1620000
0%
#1625000
b0 ;
b1011 4
1%
#1628000
b1011 4
0&
#1630000
0%
#1635000
1%
#1640000
0%
#1645000
1%
#1647000
b11 7
b1011 4
1-
#1650000
0%
#1655000
b0 7
b1011 4
0=
b10010110 6
b110010000 0
b11 ;
1%
#1658000
b1011 4
b0 7
0-
#1660000
0%
#1665000
b1011 4
b0 0
b0 ;
1%
#1667000
0<
b0 5
b0 6
b1011 4
0,
#1670000
0%
#1675000
b1011 4
1%
#1680000
0%
#1685000
b1011 4
1%
#1690000
0%
#1695000
b1011 4
1%
#1700000
0%
#1705000
b1011 4
1%
#1710000
0%
#1715000
b1011 4
1%
#1720000
0%
#1725000
b1011 4
1%
#1730000
0%
#1735000
b1011 4
1%
#1740000
0%
#1745000
1,
1%
#1750000
0%
#1755000
1%
#1760000
0%
#1765000
b1011 4
b0 +
b11001000 '
1%
#1767000
b11 7
b1011 4
1-
#1770000
0%
#1775000
b0 7
b1011 4
b11001000 6
b11001000 0
b11 ;
1%
#1778000
b1011 4
b0 7
0-
#1780000
0%
#1785000
b1011 4
1<
b0 0
b0 ;
1%
#1787000
b11 7
b1011 4
1-
#1790000
0%
#1795000
b0 7
b1011 4
b0 6
b11001000 0
b11 ;
1%
#1798000
b1011 4
b0 7
0-
#1800000
0%
#1805000
b1011 4
b0 0
b0 ;
1%
#1807000
0<
b1011 4
0,
#1810000
0%
#1815000
b1011 4
1%
#1820000
0%
#1825000
b1011 4
1%
#1830000
0%
#1835000
b1011 4
1%
#1840000
0%
#1845000
b1011 4
1%
#1850000
0%
#1855000
b1011 4
1%
#1860000
0%
#1865000
b1011 4
1%
#1870000
0%
#1875000
b1011 4
1%
#1880000
0%
#1885000
1,
1%
#1890000
0%
#1895000
1%
#1900000
0%
#1905000
b11001000 6
b11001000 0
b1 7
b1011 4
1*
b11 +
b11001000 '
1%
#1910000
0%
#1915000
b11 2
b1011 4
b1 ;
1%
#1916000
b1011 4
b11 2
0*
#1920000
0%
#1925000
1%
#1930000
0%
#1935000
b0 7
b1011 4
b11 2
1.
1%
#1940000
0%
#1945000
b1011 4
b0 2
b0 ;
1%
#1946000
b1011 4
0.
#1950000
0%
#1955000
1%
#1960000
0%
#1965000
1%
#1967000
b0 6
b0 0
b1011 4
0,
#1970000
0%
#1975000
b1011 4
1%
#1980000
0%
#1985000
b1011 4
1%
#1990000
0%
#1995000
b1011 4
1%
#2000000
0%
#2005000
b1011 4
1%
#2010000
0%
#2015000
b1011 4
1%
#2020000
0%
#2025000
b1011 4
1%
#2030000
0%
#2035000
b1011 4
1%
#2040000
0%
#2045000
1,
1%
#2050000
0%
#2055000
1%
#2060000
0%
#2065000
b1011 4
1!
b0 +
b11001000 '
1%
#2070000
0%
#2075000
1%
#2076000
0!
#2080000
0%
#2085000
1%
#2090000
0%
#2095000
1%
#2097000
b1011 4
0,
#2100000
0%
#2105000
b1011 4
1%
#2110000
0%
#2115000
b1011 4
1%
#2120000
0%
#2125000
b1011 4
1%
#2130000
0%
#2135000
b1011 4
1%
#2140000
0%
#2145000
b1011 4
1%
#2150000
0%
#2155000
b1011 4
1%
#2160000
0%
#2165000
b1011 4
1%
#2170000
0%
#2175000
1,
1%
#2180000
0%
#2185000
1%
#2190000
0%
#2195000
b11001000 6
b11001000 0
b1 7
b1011 4
1*
b1 +
b11001000 '
1%
#2200000
0%
#2205000
b1 2
b1011 4
b1 ;
1%
#2206000
b1011 4
b1 2
0*
#2210000
0%
#2215000
1%
#2220000
0%
#2225000
b1011 4
b1 2
1&
1%
#2230000
0%
#2235000
1%
#2238000
b1011 4
b1 2
0&
#2240000
b0 2
b0 7
b0 6
b0 0
b0 ;
b1011 4
0,
0%
#2245000
b1011 4
1%
#2250000
0%
#2255000
b1011 4
1%
#2260000
0%
#2265000
b1011 4
1%
#2270000
0%
#2275000
b1011 4
1%
#2280000
0%
#2285000
b1011 4
1%
#2290000
0%
#2295000
b1011 4
1%
#2300000
0%
#2305000
b1011 4
1%
#2310000
0%
#2315000
1,
1%
#2320000
0%
#2325000
1%
#2330000
0%
#2335000
b1111111111 6
b1111111111 0
b1 7
b1011 4
1*
b10001 +
b1111111111 '
1%
#2340000
0%
#2345000
b10001 2
b1011 4
b1 ;
1%
#2346000
b1011 4
b10001 2
0*
#2350000
0%
#2355000
1%
#2360000
0%
#2365000
1%
#2367000
1!
#2370000
0%
#2375000
b1011 4
b10001 2
b1 9
b111100 8
1%
#2376000
0!
#2380000
0%
#2385000
b1011 4
b10001 2
1*
1%
#2390000
0%
#2395000
1%
#2396000
b1011 4
b10001 2
0*
#2400000
0%
#2405000
1%
#2410000
0%
#2415000
1%
#2417000
1!
#2420000
0%
#2425000
b1011 4
b10001 2
b10 9
b1111000 8
1%
#2426000
0!
#2430000
0%
#2435000
b1011 4
b10001 2
1*
1%
#2440000
0%
#2445000
1%
#2446000
b1011 4
b10001 2
0*
#2450000
0%
#2455000
1%
#2460000
0%
#2465000
1%
#2467000
1!
#2470000
0%
#2475000
b1011 4
b10001 2
b11 9
b10110100 8
1%
#2476000
0!
#2480000
0%
#2485000
b1011 4
b10001 2
1*
1%
#2490000
0%
#2495000
1%
#2496000
b1011 4
b10001 2
0*
#2500000
0%
#2505000
1%
#2510000
0%
#2515000
1%
#2517000
1!
#2520000
0%
#2525000
b1011 4
b10001 2
b100 9
b11110000 8
1%
#2526000
0!
#2530000
0%
#2535000
b1011 4
b10001 2
1*
1%
#2540000
0%
#2545000
1%
#2546000
b1011 4
b10001 2
0*
#2550000
0%
#2555000
1%
#2560000
0%
#2565000
1%
#2567000
1!
#2570000
0%
#2575000
b1011 4
b10001 2
b101 9
b100101100 8
1%
#2576000
0!
#2580000
0%
#2585000
b1011 4
b10001 2
1*
1%
#2590000
0%
#2595000
1%
#2596000
b1011 4
b10001 2
0*
#2600000
0%
#2605000
1%
#2610000
0%
#2615000
1%
#2617000
1!
#2620000
0%
#2625000
b1011 4
b10001 2
b110 9
b101101000 8
1%
#2626000
0!
#2630000
0%
#2635000
b1011 4
b10001 2
1*
1%
#2640000
0%
#2645000
1%
#2646000
b1011 4
b10001 2
0*
#2650000
0%
#2655000
1%
#2660000
0%
#2665000
1%
#2667000
1!
#2670000
0%
#2675000
b1011 4
b10001 2
b111 9
b110100100 8
1%
#2676000
0!
#2680000
0%
#2685000
b1011 4
b10001 2
1*
1%
#2690000
0%
#2695000
1%
#2696000
b1011 4
b10001 2
0*
#2700000
0%
#2705000
1%
#2710000
0%
#2715000
1%
#2717000
1!
#2720000
0%
#2725000
b1011 4
b10001 2
b1000 9
b111100000 8
1%
#2726000
0!
#2730000
0%
#2735000
b1011 4
b10001 2
1*
1%
#2740000
0%
#2745000
1%
#2746000
b1011 4
b10001 2
0*
#2750000
0%
#2755000
1%
#2760000
0%
#2765000
1%
#2767000
1!
#2770000
0%
#2775000
b1011 4
b10001 2
b1001 9
b1000011100 8
1%
#2776000
0!
#2780000
0%
#2785000
b1011 4
b10001 2
1*
1%
#2790000
0%
#2795000
1%
#2796000
b1011 4
b10001 2
0*
#2800000
0%
#2805000
1%
#2810000
0%
#2815000
1%
#2817000
1!
#2820000
0%
#2825000
b1011 4
b10001 2
b1010 9
b1001011000 8
1%
#2826000
0!
#2830000
0%
#2835000
b1011 4
b10001 2
1*
1%
#2840000
0%
#2845000
1%
#2846000
b1011 4
b10001 2
0*
#2850000
0%
#2855000
1%
#2860000
0%
#2865000
1%
#2867000
1!
#2870000
0%
#2875000
b1011 4
b10001 2
b1011 9
b1010010100 8
1%
#2876000
0!
#2880000
0%
#2885000
11
b1011 4
b10001 2
1*
1%
#2890000
0%
#2895000
1%
#2896000
b1011 4
b10001 2
0*
#2900000
0%
#2905000
1%
#2910000
0%
#2915000
1%
#2917000
1!
#2920000
0%
#2925000
1%
#2926000
0!
#2930000
0%
#2935000
1%
#2940000
0%
#2945000
1%
#2950000
0%
#2955000
1%
#2957000
b0 2
b0 7
01
b0 6
b0 9
b0 8
b0 0
b0 ;
b1011 4
0,
#2960000
0%
#2965000
b1011 4
1%
#2970000
0%
#2975000
b1011 4
1%
#2980000
0%
#2985000
b1011 4
1%
#2990000
0%
#2995000
b1011 4
1%
#3000000
0%
#3005000
b1011 4
1%
#3010000
0%
#3015000
b1011 4
1%
#3020000
0%
#3025000
b1011 4
1%
#3030000
0%
#3035000
1,
1%
#3040000
0%
#3045000
1%
#3050000
0%
#3055000
b1100100 6
b1100100 0
b1 7
b1011 4
1*
b10011 +
b1100100 '
1%
#3060000
0%
#3065000
b10011 2
b1011 4
b1 ;
1%
#3066000
b1011 4
b10011 2
0*
#3070000
0%
#3075000
1%
#3080000
0%
#3085000
1%
#3087000
1!
#3090000
0%
#3095000
b1011 4
0/
b10011 2
b1 9
b11100001 8
1%
#3096000
0!
#3100000
0%
#3105000
b10 7
b1011 4
b10011 2
1$
1%
#3110000
0%
#3115000
b1011 4
b0 2
b10 ;
1%
#3116000
b1011 4
0$
#3120000
0%
#3125000
b1111101 :
13
b1011 4
1&
1%
#3130000
0%
#3135000
1%
#3138000
b1011 4
0&
#3140000
0%
#3145000
1%
#3150000
0%
#3155000
1%
#3157000
b10010110 (
1"
#3160000
0%
#3165000
b1011 4
1/
b11111010 0
1%
#3166000
0"
#3170000
0%
#3175000
1%
#3180000
0%
#3185000
b11001 5
1<
b0 :
03
1=
b0 9
b0 8
b11001 0
b0 7
b0 4
1&
1%
#3190000
0%
#3195000
b0 ;
b1011 4
1%
#3198000
b1011 4
0&
#3200000
0%
#3205000
1%
#3210000
0%
#3215000
1%
#3217000
0<
b0 5
0=
b0 6
b0 0
b1011 4
0,
#3220000
0%
#3225000
b1011 4
1%
#3230000
0%
#3235000
b1011 4
1%
#3240000
0%
#3245000
b1011 4
1%
#3250000
0%
#3255000
b1011 4
1%
#3260000
0%
#3265000
b1011 4
1%
#3270000
0%
#3275000
b1011 4
1%
#3280000
0%
#3285000
b1011 4
1%
#3290000
0%
#3295000
1,
1%
#3300000
0%
#3305000
1%
#3310000
0%
#3315000
b1011101111 6
b1011101111 0
b1 7
b1011 4
1*
b1010 +
b0 (
b1011101111 '
1%
#3320000
0%
#3325000
b1010 2
b1011 4
b1 ;
1%
#3326000
b1011 4
b1010 2
0*
#3330000
0%
#3335000
1%
#3340000
0%
#3345000
1%
#3347000
1!
#3350000
0%
#3355000
b1011 4
b1010 2
b1 9
b1001011 8
1%
#3356000
0!
#3360000
0%
#3365000
b1011 4
b10110 2
1*
b10110 +
1%
#3370000
0%
#3375000
1%
#3376000
b1011 4
b10110 2
0*
#3380000
0%
#3385000
1%
#3390000
0%
#3395000
1%
#3397000
1!
#3400000
0%
#3405000
b1011 4
b10110 2
b10 9
b100010011 8
1%
#3406000
0!
#3410000
0%
#3415000
b1011 4
b11110 2
1*
b11110 +
1%
#3420000
0%
#3425000
1%
#3426000
b1011 4
b11110 2
0*
#3430000
0%
#3435000
1%
#3440000
0%
#3445000
1%
#3447000
1!
#3450000
0%
#3455000
b1011 4
b11110 2
b11 9
b111011011 8
1%
#3456000
0!
#3460000
0%
#3465000
b1011 4
b11100 2
1*
b11100 +
1%
#3470000
0%
#3475000
1%
#3476000
b1011 4
b11100 2
0*
#3480000
0%
#3485000
1%
#3490000
0%
#3495000
1%
#3497000
1!
#3500000
0%
#3505000
b1011 4
b11100 2
b100 9
b1001110001 8
1%
#3506000
0!
#3510000
0%
#3515000
b10 7
b1011 4
b11100 2
1$
1%
#3520000
0%
#3525000
b1011 4
b0 2
b10 ;
1%
#3526000
b1011 4
0$
#3530000
0%
#3535000
b1111110 5
1<
1=
b0 9
b0 8
b1111110 0
b0 7
b0 4
1&
1%
#3540000
0%
#3545000
b0 ;
b1011 4
1%
#3548000
b1011 4
0&
#3550000
0%
#3555000
1%
#3560000
0%
#3565000
0<
b0 5
0=
b0 6
b0 0
b1011 4
0,
1%
#3570000
0%
#3575000
b1011 4
1%
#3580000
0%
#3585000
b1011 4
1%
#3590000
0%
#3595000
b1011 4
1%
#3600000
0%
#3605000
b1011 4
1%
#3610000
0%
#3615000
b1011 4
1%
#3620000
0%
#3625000
b1011 4
1%
#3630000
0%
#3635000
b1011 4
1%
#3640000
0%
#3645000
1,
1%
#3650000
0%
#3655000
1%
#3660000
0%
#3665000
b1000111001 6
b1000111001 0
b1 7
b1011 4
1*
b1011 +
b1000111001 '
1%
#3670000
0%
#3675000
b1011 2
b1011 4
b1 ;
1%
#3676000
b1011 4
b1011 2
0*
#3680000
0%
#3685000
1%
#3690000
0%
#3695000
1%
#3697000
1!
#3700000
0%
#3705000
b1011 4
b1011 2
b1 9
b1011010 8
1%
#3706000
0!
#3710000
0%
#3715000
b10 7
b1011 4
b1011 2
1$
1%
#3720000
0%
#3725000
b1011 4
b0 2
b10 ;
1%
#3726000
b1011 4
0$
#3730000
0%
#3735000
b111011111 5
1<
1=
b0 9
b0 8
b111011111 0
b0 7
b0 4
1&
1%
#3740000
0%
#3745000
b0 ;
b1011 4
1%
#3748000
b1011 4
0&
#3750000
0%
#3755000
1%
#3760000
0%
#3765000
0<
b0 5
0=
b0 6
b0 0
b1011 4
0,
1%
#3770000
0%
#3775000
b1011 4
1%
#3780000
0%
#3785000
b1011 4
1%
#3790000
0%
#3795000
b1011 4
1%
#3800000
0%
#3805000
b1011 4
1%
#3810000
0%
#3815000
b1011 4
1%
#3820000
0%
#3825000
b1011 4
1%
#3830000
0%
#3835000
b1011 4
1%
#3840000
0%
#3845000
1,
1%
#3850000
0%
#3855000
1%
#3860000
0%
#3865000
b1010110010 6
b1010110010 0
b1 7
b1011 4
1*
b1111 +
b1010110010 '
1%
#3870000
0%
#3875000
b1111 2
b1011 4
b1 ;
1%
#3876000
b1011 4
b1111 2
0*
#3880000
0%
#3885000
1%
#3890000
0%
#3895000
1%
#3897000
1!
#3900000
0%
#3905000
b1011 4
b1111 2
b1 9
b1010000 8
1%
#3906000
0!
#3910000
0%
#3915000
b1011 4
b10011 2
1*
b10011 +
1%
#3920000
0%
#3925000
1%
#3926000
b1011 4
b10011 2
0*
#3930000
0%
#3935000
1%
#3940000
0%
#3945000
1%
#3947000
1!
#3950000
0%
#3955000
b1011 4
b10011 2
b10 9
b100110001 8
1%
#3956000
0!
#3960000
0%
#3965000
b10 7
b1011 4
b10011 2
1$
1%
#3970000
0%
#3975000
b1011 4
b0 2
b10 ;
1%
#3976000
b1011 4
0$
#3980000
0%
#3985000
b110000001 5
1<
1=
b0 9
b0 8
b110000001 0
b0 7
b0 4
1&
1%
#3990000
0%
#3995000
b0 ;
b1011 4
1%
#3998000
b1011 4
0&
#4000000
0%
#4005000
1%
#4010000
0%
#4015000
0<
b0 5
0=
b0 6
b0 0
b1011 4
0,
1%
#4020000
0%
#4025000
b1011 4
1%
#4030000
0%
#4035000
b1011 4
1%
#4040000
0%
#4045000
b1011 4
1%
#4050000
0%
#4055000
b1011 4
1%
#4060000
0%
#4065000
b1011 4
1%
#4070000
0%
#4075000
b1011 4
1%
#4080000
0%
#4085000
b1011 4
1%
#4090000
0%
#4095000
1,
1%
#4100000
0%
#4105000
1%
#4110000
0%
#4115000
b1100110011 6
b1100110011 0
b1 7
b1011 4
1*
b1011 +
b1100110011 '
1%
#4120000
0%
#4125000
b1011 2
b1011 4
b1 ;
1%
#4126000
b1011 4
b1011 2
0*
#4130000
0%
#4135000
1%
#4140000
0%
#4145000
1%
#4147000
1!
#4150000
0%
#4155000
b1011 4
b1011 2
b1 9
b1011010 8
1%
#4156000
0!
#4160000
0%
#4165000
b1011 4
b11110 2
1*
b11110 +
1%
#4170000
0%
#4175000
1%
#4176000
b1011 4
b11110 2
0*
#4180000
0%
#4185000
1%
#4190000
0%
#4195000
1%
#4197000
1!
#4200000
0%
#4205000
b1011 4
b11110 2
b10 9
b100100010 8
1%
#4206000
0!
#4210000
0%
#4215000
b10 7
b1011 4
b11110 2
1$
1%
#4220000
0%
#4225000
b1011 4
b0 2
b10 ;
1%
#4226000
b1011 4
0$
#4230000
0%
#4235000
b1000010001 5
1<
1=
b0 9
b0 8
b1000010001 0
b0 7
b0 4
1&
1%
#4240000
0%
#4245000
b0 ;
b1011 4
1%
#4248000
b1011 4
0&
#4250000
0%
#4255000
1%
#4260000
0%
#4265000
0<
b0 5
0=
b0 6
b0 0
b1011 4
0,
1%
#4270000
0%
#4275000
b1011 4
1%
#4280000
0%
#4285000
b1011 4
1%
#4290000
0%
#4295000
b1011 4
1%
#4300000
0%
#4305000
b1011 4
1%
#4310000
0%
#4315000
b1011 4
1%
#4320000
0%
#4325000
b1011 4
1%
#4330000
0%
#4335000
b1011 4
1%
#4340000
0%
#4345000
1,
1%
#4350000
0%
#4355000
1%
#4360000
0%
#4365000
b1001110011 6
b1001110011 0
b1 7
b1011 4
1*
b1001 +
b1001110011 '
1%
#4370000
0%
#4375000
b1001 2
b1011 4
b1 ;
1%
#4376000
b1011 4
b1001 2
0*
#4380000
0%
#4385000
1%
#4390000
0%
#4395000
1%
#4397000
1!
#4400000
0%
#4405000
b1011 4
b1001 2
b1 9
b1001011 8
1%
#4406000
0!
#4410000
0%
#4415000
b1011 4
b10 2
1*
b10 +
1%
#4420000
0%
#4425000
1%
#4426000
b1011 4
b10 2
0*
#4430000
0%
#4435000
1%
#4440000
0%
#4445000
1%
#4447000
1!
#4450000
0%
#4455000
b1011 4
b10 2
b10 9
b11001000 8
1%
#4456000
0!
#4460000
0%
#4465000
b10 7
b1011 4
b10 2
1$
1%
#4470000
0%
#4475000
b1011 4
b0 2
b10 ;
1%
#4476000
b1011 4
0$
#4480000
0%
#4485000
b110101011 5
1<
1=
b0 9
b0 8
b110101011 0
b0 7
b0 4
1&
1%
#4490000
0%
#4495000
b0 ;
b1011 4
1%
#4498000
b1011 4
0&
#4500000
0%
#4505000
1%
#4510000
0%
#4515000
0<
b0 5
0=
b0 6
b0 0
b1011 4
0,
1%
#4520000
0%
#4525000
b1011 4
1%
#4530000
0%
#4535000
b1011 4
1%
#4540000
0%
#4545000
b1011 4
1%
#4550000
0%
#4555000
b1011 4
1%
#4560000
0%
#4565000
b1011 4
1%
#4570000
0%
#4575000
b1011 4
1%
#4580000
0%
#4585000
b1011 4
1%
#4590000
0%
#4595000
1,
1%
#4600000
0%
#4605000
1%
#4610000
0%
